// PyEPL: hardware/sound/eplSound.i
//
// Copyright (C) 2003-2005 Michael J. Kahana
// Authors: Ian Schleifer, Per Sederberg, Aaron Geller, Josh Jacobs
// URL: http://memory.psych.upenn.edu/programming/pyepl
//
// Distributed under the terms of the GNU Lesser General Public License
// (LGPL). See the license.txt that came with this file.

%module eplSound

#ifdef SWIGPYTHON
%typemap(in) MY_TYPE * {
  char *buffer;
  buffer = PyString_AsString($input);
  $1 = (MY_TYPE *)buffer;
}
#endif

%{
#include "eplSound.h"
%}

%include "eplSound.h"

